…
Results saved to /Users/flamefork/Development/ff/duckdb-jsono/bench/results/latest.json

┌──────────┬─────────────┬──────────────────────────┬─────────┬────────┬───────────┬────────┬─────────────────┐
│  target  │  operation  │         scenario         │  size   │ min_ms │ median_ms │ max_ms │ rows_per_second │
│ varchar  │   varchar   │         varchar          │ varchar │ double │  double   │ double │      int64      │
├──────────┼─────────────┼──────────────────────────┼─────────┼────────┼───────────┼────────┼─────────────────┤
│ baseline │ group_merge │ few_groups_ignore_nulls  │ 100k    │  393.5 │     400.7 │  411.7 │          254123 │
│ current  │ group_merge │ few_groups_ignore_nulls  │ 100k    │  388.5 │     392.5 │  402.1 │          257427 │
│ baseline │ group_merge │ few_groups_ignore_nulls  │ 10k     │   39.9 │      40.0 │   41.1 │          250689 │
│ current  │ group_merge │ few_groups_ignore_nulls  │ 10k     │   40.7 │      40.8 │   41.1 │          245942 │
│ baseline │ group_merge │ few_groups_ignore_nulls  │ 1k      │    4.7 │       4.9 │    5.4 │          211416 │
│ current  │ group_merge │ few_groups_ignore_nulls  │ 1k      │    4.9 │       5.0 │    5.2 │          202429 │
│ baseline │ group_merge │ many_groups_ignore_nulls │ 100k    │  451.0 │     460.0 │  519.5 │          221710 │
│ current  │ group_merge │ many_groups_ignore_nulls │ 100k    │  435.7 │     439.7 │  456.1 │          229516 │
│ baseline │ group_merge │ many_groups_ignore_nulls │ 10k     │   65.0 │      75.1 │   93.1 │          153799 │
│ current  │ group_merge │ many_groups_ignore_nulls │ 10k     │   59.5 │      63.9 │   71.6 │          168209 │
│    ·     │     ·       │       ·                  │ ·       │     ·  │        ·  │     ·  │             ·   │
│    ·     │     ·       │       ·                  │ ·       │     ·  │        ·  │     ·  │             ·   │
│    ·     │     ·       │       ·                  │ ·       │     ·  │        ·  │     ·  │             ·   │
│ current  │ transform   │ ecommerce_join           │ 1k      │    0.3 │       0.4 │    0.4 │         2941176 │
│ baseline │ transform   │ flat_core                │ 100k    │  100.0 │     102.9 │  106.0 │          999900 │
│ current  │ transform   │ flat_core                │ 100k    │  101.2 │     101.9 │  104.0 │          988631 │
│ baseline │ transform   │ flat_core                │ 10k     │   10.1 │      10.2 │   10.6 │          986193 │
│ current  │ transform   │ flat_core                │ 10k     │   10.1 │      10.3 │   10.4 │          988142 │
│ baseline │ transform   │ flat_core                │ 1k      │    1.2 │       1.3 │    1.3 │          826446 │
│ current  │ transform   │ flat_core                │ 1k      │    1.1 │       1.2 │    1.3 │          884956 │
│ current  │ transform   │ nested_core              │ 100k    │   73.7 │      75.3 │   75.8 │         1357589 │
│ current  │ transform   │ nested_core              │ 10k     │    7.1 │       7.3 │    7.4 │         1400560 │
│ current  │ transform   │ nested_core              │ 1k      │    0.9 │       0.9 │    1.0 │         1136364 │
└──────────┴─────────────┴──────────────────────────┴─────────┴────────┴───────────┴────────┴─────────────────┘
  58 rows (20 shown)                                                                                8 columns
…
